{
	"info": {
		"_postman_id": "791d69ae-d68a-46a0-bd7a-1fef8339caea",
		"name": "EnableU iDashboard 3.0 Pilot Session",
		"schema": "https://schema.getpostman.com/json/collection/v2.1.0/collection.json",
		"_exporter_id": "23172815",
		"_collection_link": "https://jnetbv.postman.co/workspace/CaaS-Lab~366adcea-132f-4300-b130-0d4ff16fba66/collection/23172815-791d69ae-d68a-46a0-bd7a-1fef8339caea?action=share&creator=23172815&source=collection_link"
	},
	"item": [
		{
			"name": "Pilot MI Alpha Backend System 2 (Gemeente Juinen) - Success",
			"request": {
				"method": "POST",
				"header": [],
				"body": {
					"mode": "raw",
					"raw": "<?xml version=\"1.0\"?>\n<BG:npsLk01 xmlns:StUF=\"http://www.egem.nl/StUF/StUF0301\" xmlns:BG=\"http://www.egem.nl/StUF/sector/bg/0310\" xmlns:xsi=\"http://www.w3.org/2001/XMLSchema-instance\">\n  <BG:stuurgegevens>\n    <StUF:berichtcode>Lk01</StUF:berichtcode>\n    <StUF:zender>\n      <StUF:organisatie>0402</StUF:organisatie>\n      <StUF:applicatie>VOA</StUF:applicatie>\n    </StUF:zender>\n    <StUF:ontvanger>\n      <StUF:organisatie>0402</StUF:organisatie>\n      <StUF:applicatie>SPLUS</StUF:applicatie>\n    </StUF:ontvanger>\n    <StUF:referentienummer>XXXXXXXXX</StUF:referentienummer>\n    <StUF:tijdstipBericht>20210707171949692</StUF:tijdstipBericht>\n    <StUF:entiteittype>NPS</StUF:entiteittype>\n  </BG:stuurgegevens>\n  <BG:parameters>\n    <StUF:mutatiesoort>T</StUF:mutatiesoort>\n    <StUF:indicatorOvername>I</StUF:indicatorOvername>\n  </BG:parameters>\n  <BG:object StUF:entiteittype=\"NPS\" StUF:verwerkingssoort=\"W\" StUF:sleutelVerzendend=\"999994888\">\n    <BG:inp.bsn>999994888</BG:inp.bsn>\n  </BG:object>\n  <BG:object StUF:entiteittype=\"NPS\" StUF:verwerkingssoort=\"W\" StUF:sleutelVerzendend=\"999994888\">\n    <BG:inp.bsn>999994888</BG:inp.bsn>\n    <BG:inp.a-nummer>1786591927</BG:inp.a-nummer>\n    <BG:geslachtsnaam>Brabo</BG:geslachtsnaam>\n    <BG:voorvoegselGeslachtsnaam>van</BG:voorvoegselGeslachtsnaam>\n    <BG:voornamen>Arnitta</BG:voornamen>\n    <BG:aanduidingNaamgebruik StUF:noValue=\"waardeOnbekend\" xsi:nil=\"true\"/>\n    <BG:geslachtsnaamPartner StUF:noValue=\"waardeOnbekend\" xsi:nil=\"true\"/>\n    <BG:voorvoegselGeslachtsnaamPartner StUF:noValue=\"waardeOnbekend\" xsi:nil=\"true\"/>\n    <BG:adellijkeTitelPredikaat>Barones</BG:adellijkeTitelPredikaat>\n    <BG:geslachtsaanduiding>V</BG:geslachtsaanduiding>\n    <BG:geboortedatum>19231213</BG:geboortedatum>\n    <BG:inp.geboorteplaats>Avignan &#xCD;safj&#xF6;r&#xF0;us K&#x151;r&#xF6;st&#xE9;tlen</BG:inp.geboorteplaats>\n    <BG:inp.geboorteLand>5002</BG:inp.geboorteLand>\n    <BG:overlijdensdatum StUF:noValue=\"waardeOnbekend\" xsi:nil=\"true\"/>\n    <BG:inp.overlijdenplaats StUF:noValue=\"waardeOnbekend\" xsi:nil=\"true\"/>\n    <BG:inp.overlijdenLand StUF:noValue=\"waardeOnbekend\" xsi:nil=\"true\"/>\n    <BG:inp.gemeenteVanInschrijving>1999</BG:inp.gemeenteVanInschrijving>\n    <BG:inp.datumInschrijving>20120920</BG:inp.datumInschrijving>\n    <BG:vbt.aanduidingVerblijfstitel StUF:noValue=\"waardeOnbekend\" xsi:nil=\"true\"/>\n    <BG:ing.datumVerkrijgingVerblijfstitel StUF:noValue=\"waardeOnbekend\" xsi:nil=\"true\"/>\n    <BG:ing.datumVerliesVerblijfstitel StUF:noValue=\"waardeOnbekend\" xsi:nil=\"true\"/>\n    <BG:inp.datumVestigingInNederland StUF:noValue=\"waardeOnbekend\" xsi:nil=\"true\"/>\n    <BG:inp.immigratieLand StUF:noValue=\"waardeOnbekend\" xsi:nil=\"true\"/>\n    <BG:inp.datumVertrekUitNederland>20120920</BG:inp.datumVertrekUitNederland>\n    <BG:inp.emigratieLand>6023</BG:inp.emigratieLand>\n    <BG:ing.indicatieGezagMinderjarige StUF:noValue=\"waardeOnbekend\" xsi:nil=\"true\"/>\n    <BG:ing.indicatieCurateleRegister StUF:noValue=\"waardeOnbekend\" xsi:nil=\"true\"/>\n    <BG:inp.datumOpschortingBijhouding>20120920</BG:inp.datumOpschortingBijhouding>\n    <BG:inp.redenOpschortingBijhouding>R</BG:inp.redenOpschortingBijhouding>\n    <BG:inp.indicatieGeheim>0</BG:inp.indicatieGeheim>\n    <BG:brondocument StUF:metagegeven=\"true\">\n      <BG:identificatie StUF:noValue=\"waardeOnbekend\" xsi:nil=\"true\"/>\n      <BG:datum>20120920</BG:datum>\n      <BG:omschrijving>Paspoort</BG:omschrijving>\n      <BG:gemeente>1999</BG:gemeente>\n      <BG:aktegemeente StUF:noValue=\"waardeOnbekend\" xsi:nil=\"true\"/>\n    </BG:brondocument>\n    <StUF:tijdvakGeldigheid>\n      <StUF:beginGeldigheid>20120920</StUF:beginGeldigheid>\n      <StUF:eindGeldigheid StUF:noValue=\"geenWaarde\" xsi:nil=\"true\"/>\n    </StUF:tijdvakGeldigheid>\n    <StUF:tijdstipRegistratie>20120920</StUF:tijdstipRegistratie>\n    <BG:inp.heeftAlsNationaliteit StUF:verwerkingssoort=\"W\" StUF:entiteittype=\"NPSNAT\">\n      <BG:gerelateerde StUF:entiteittype=\"NAT\" StUF:verwerkingssoort=\"T\">\n        <BG:code>0051</BG:code>\n      </BG:gerelateerde>\n      <BG:inp.redenVerkrijging StUF:noValue=\"waardeOnbekend\" xsi:nil=\"true\"/>\n      <BG:inp.redenVerlies>140</BG:inp.redenVerlies>\n      <StUF:tijdvakGeldigheid>\n        <StUF:beginGeldigheid>20121020</StUF:beginGeldigheid>\n        <StUF:eindGeldigheid StUF:noValue=\"geenWaarde\" xsi:nil=\"true\"/>\n      </StUF:tijdvakGeldigheid>\n      <StUF:tijdstipRegistratie>20120921</StUF:tijdstipRegistratie>\n    </BG:inp.heeftAlsNationaliteit>\n  </BG:object>\n</BG:npsLk01>",
					"options": {
						"raw": {
							"language": "xml"
						}
					}
				},
				"url": {
					"raw": "https://ot02.dev.osb.app/opentunnel/pilot/xml/alpha/gemeentejuinen/backendsystem2",
					"protocol": "https",
					"host": [
						"ot02",
						"dev",
						"osb",
						"app"
					],
					"path": [
						"opentunnel",
						"pilot",
						"xml",
						"alpha",
						"gemeentejuinen",
						"backendsystem2"
					]
				}
			},
			"response": [
				{
					"name": "mock",
					"originalRequest": {
						"method": "GET",
						"header": [],
						"url": {
							"raw": "/pilot/xml/alpha/success",
							"path": [
								"pilot",
								"xml",
								"alpha",
								"success"
							]
						}
					},
					"status": "OK",
					"code": 200,
					"_postman_previewlanguage": "xml",
					"header": [
						{
							"key": "Content-Type",
							"value": "application/xml",
							"name": "Content-Type",
							"description": "",
							"type": "text"
						}
					],
					"cookie": [],
					"body": "<result>Success</result>"
				}
			]
		},
		{
			"name": "Pilot MI Alpha Backend System 2 (Gemeente Juinen) - Error",
			"request": {
				"method": "POST",
				"header": [],
				"body": {
					"mode": "raw",
					"raw": "<?xml version=\"1.0\"?>\n<BG:npsLk01 xmlns:StUF=\"http://www.egem.nl/StUF/StUF0301\" xmlns:BG=\"http://www.egem.nl/StUF/sector/bg/0310\" xmlns:xsi=\"http://www.w3.org/2001/XMLSchema-instance\">\n  <BG:stuurgegevens>\n    <StUF:berichtcode>Lk01</StUF:berichtcode>\n    <StUF:zender>\n      <StUF:organisatie>0402</StUF:organisatie>\n      <StUF:applicatie>VOA</StUF:applicatie>\n    </StUF:zender>\n    <StUF:ontvanger>\n      <StUF:organisatie>0402</StUF:organisatie>\n      <StUF:applicatie>SPLUS</StUF:applicatie>\n    </StUF:ontvanger>\n    <StUF:referentienummer>XXXXXXXXX</StUF:referentienummer>\n    <StUF:tijdstipBericht>20210707171949692</StUF:tijdstipBericht>\n    <StUF:entiteittype>NPS</StUF:entiteittype>\n  </BG:stuurgegevens>\n  <BG:parameters>\n    <StUF:mutatiesoort>W</StUF:mutatiesoort>\n    <StUF:indicatorOvername>I</StUF:indicatorOvername>\n  </BG:parameters>\n  <BG:object StUF:entiteittype=\"NPS\" StUF:verwerkingssoort=\"W\" StUF:sleutelVerzendend=\"999994888\">\n    <BG:inp.bsn>999994888</BG:inp.bsn>\n  </BG:object>\n  <BG:object StUF:entiteittype=\"NPS\" StUF:verwerkingssoort=\"W\" StUF:sleutelVerzendend=\"999994888\">\n    <BG:inp.bsn>999994888</BG:inp.bsn>\n    <BG:inp.a-nummer>1786591927</BG:inp.a-nummer>\n    <BG:geslachtsnaam>Brabo</BG:geslachtsnaam>\n    <BG:voorvoegselGeslachtsnaam>van</BG:voorvoegselGeslachtsnaam>\n    <BG:voornamen>Arnitta</BG:voornamen>\n    <BG:aanduidingNaamgebruik StUF:noValue=\"waardeOnbekend\" xsi:nil=\"true\"/>\n    <BG:geslachtsnaamPartner StUF:noValue=\"waardeOnbekend\" xsi:nil=\"true\"/>\n    <BG:voorvoegselGeslachtsnaamPartner StUF:noValue=\"waardeOnbekend\" xsi:nil=\"true\"/>\n    <BG:adellijkeTitelPredikaat>Barones</BG:adellijkeTitelPredikaat>\n    <BG:geslachtsaanduiding>V</BG:geslachtsaanduiding>\n    <BG:geboortedatum>19231213</BG:geboortedatum>\n    <BG:inp.geboorteplaats>Avignan &#xCD;safj&#xF6;r&#xF0;us K&#x151;r&#xF6;st&#xE9;tlen</BG:inp.geboorteplaats>\n    <BG:inp.geboorteLand>5002</BG:inp.geboorteLand>\n    <BG:overlijdensdatum StUF:noValue=\"waardeOnbekend\" xsi:nil=\"true\"/>\n    <BG:inp.overlijdenplaats StUF:noValue=\"waardeOnbekend\" xsi:nil=\"true\"/>\n    <BG:inp.overlijdenLand StUF:noValue=\"waardeOnbekend\" xsi:nil=\"true\"/>\n    <BG:inp.gemeenteVanInschrijving>1999</BG:inp.gemeenteVanInschrijving>\n    <BG:inp.datumInschrijving>20120920</BG:inp.datumInschrijving>\n    <BG:vbt.aanduidingVerblijfstitel StUF:noValue=\"waardeOnbekend\" xsi:nil=\"true\"/>\n    <BG:ing.datumVerkrijgingVerblijfstitel StUF:noValue=\"waardeOnbekend\" xsi:nil=\"true\"/>\n    <BG:ing.datumVerliesVerblijfstitel StUF:noValue=\"waardeOnbekend\" xsi:nil=\"true\"/>\n    <BG:inp.datumVestigingInNederland StUF:noValue=\"waardeOnbekend\" xsi:nil=\"true\"/>\n    <BG:inp.immigratieLand StUF:noValue=\"waardeOnbekend\" xsi:nil=\"true\"/>\n    <BG:inp.datumVertrekUitNederland>20120920</BG:inp.datumVertrekUitNederland>\n    <BG:inp.emigratieLand>6023</BG:inp.emigratieLand>\n    <BG:ing.indicatieGezagMinderjarige StUF:noValue=\"waardeOnbekend\" xsi:nil=\"true\"/>\n    <BG:ing.indicatieCurateleRegister StUF:noValue=\"waardeOnbekend\" xsi:nil=\"true\"/>\n    <BG:inp.datumOpschortingBijhouding>20120920</BG:inp.datumOpschortingBijhouding>\n    <BG:inp.redenOpschortingBijhouding>R</BG:inp.redenOpschortingBijhouding>\n    <BG:inp.indicatieGeheim>0</BG:inp.indicatieGeheim>\n    <BG:brondocument StUF:metagegeven=\"true\">\n      <BG:identificatie StUF:noValue=\"waardeOnbekend\" xsi:nil=\"true\"/>\n      <BG:datum>20120920</BG:datum>\n      <BG:omschrijving>Paspoort</BG:omschrijving>\n      <BG:gemeente>1999</BG:gemeente>\n      <BG:aktegemeente StUF:noValue=\"waardeOnbekend\" xsi:nil=\"true\"/>\n    </BG:brondocument>\n    <StUF:tijdvakGeldigheid>\n      <StUF:beginGeldigheid>20120920</StUF:beginGeldigheid>\n      <StUF:eindGeldigheid StUF:noValue=\"geenWaarde\" xsi:nil=\"true\"/>\n    </StUF:tijdvakGeldigheid>\n    <StUF:tijdstipRegistratie>20120920</StUF:tijdstipRegistratie>\n    <BG:inp.heeftAlsNationaliteit StUF:verwerkingssoort=\"W\" StUF:entiteittype=\"NPSNAT\">\n      <BG:gerelateerde StUF:entiteittype=\"NAT\" StUF:verwerkingssoort=\"T\">\n        <BG:code>0051</BG:code>\n      </BG:gerelateerde>\n      <BG:inp.redenVerkrijging StUF:noValue=\"waardeOnbekend\" xsi:nil=\"true\"/>\n      <BG:inp.redenVerlies>140</BG:inp.redenVerlies>\n      <StUF:tijdvakGeldigheid>\n        <StUF:beginGeldigheid>20121020</StUF:beginGeldigheid>\n        <StUF:eindGeldigheid StUF:noValue=\"geenWaarde\" xsi:nil=\"true\"/>\n      </StUF:tijdvakGeldigheid>\n      <StUF:tijdstipRegistratie>20120921</StUF:tijdstipRegistratie>\n    </BG:inp.heeftAlsNationaliteit>\n  </BG:object>\n</BG:npsLk01>",
					"options": {
						"raw": {
							"language": "xml"
						}
					}
				},
				"url": {
					"raw": "https://ot02.dev.osb.app/opentunnel/pilot/xml/alpha/gemeentejuinen/backendsystem2",
					"protocol": "https",
					"host": [
						"ot02",
						"dev",
						"osb",
						"app"
					],
					"path": [
						"opentunnel",
						"pilot",
						"xml",
						"alpha",
						"gemeentejuinen",
						"backendsystem2"
					]
				}
			},
			"response": [
				{
					"name": "mock",
					"originalRequest": {
						"method": "GET",
						"header": [],
						"url": {
							"raw": "/pilot/xml/alpha/error",
							"path": [
								"pilot",
								"xml",
								"alpha",
								"error"
							]
						}
					},
					"status": "Internal Server Error",
					"code": 500,
					"_postman_previewlanguage": "xml",
					"header": [
						{
							"key": "Content-Type",
							"value": "application/xml",
							"name": "Content-Type",
							"description": "",
							"type": "text"
						}
					],
					"cookie": [],
					"body": "<result>Error</result>"
				}
			]
		},
		{
			"name": "Pilot MI Beta Document System B (Gemeente Juinen) - Success",
			"request": {
				"method": "POST",
				"header": [],
				"body": {
					"mode": "raw",
					"raw": "<oprLk01 xmlns=\"http://www.egem.nl/StUF/sector/bg/0310\">\n  <stuurgegevens xmlns:BG=\"http://www.egem.nl/StUF/sector/bg/0310\" xmlns:StUF=\"http://www.egem.nl/StUF/StUF0301\" xmlns:xsi=\"http://www.w3.org/2001/XMLSchema-instance\">\n    <StUF:berichtcode>Lk01</StUF:berichtcode>\n    <StUF:zender>\n      <StUF:organisatie/>\n      <StUF:applicatie>LVBAG</StUF:applicatie>\n      <StUF:administratie/>\n      <StUF:gebruiker/>\n    </StUF:zender>\n    <StUF:ontvanger>\n      <StUF:organisatie/>\n      <StUF:applicatie>DDS</StUF:applicatie>\n      <StUF:administratie/>\n      <StUF:gebruiker/>\n    </StUF:ontvanger>\n    <StUF:referentienummer>26fdc089-7528-403a-a1e5-a77085644846</StUF:referentienummer>\n    <StUF:tijdstipBericht>20210804143832454</StUF:tijdstipBericht>\n    <StUF:entiteittype>OPR</StUF:entiteittype>\n  </stuurgegevens>\n  <parameters xmlns:BG=\"http://www.egem.nl/StUF/sector/bg/0310\" xmlns:StUF=\"http://www.egem.nl/StUF/StUF0301\" xmlns:xsi=\"http://www.w3.org/2001/XMLSchema-instance\">\n    <StUF:mutatiesoort>T</StUF:mutatiesoort>\n    <StUF:indicatorOvername>V</StUF:indicatorOvername>\n  </parameters>\n  <object xmlns:BG=\"http://www.egem.nl/StUF/sector/bg/0310\" xmlns:StUF=\"http://www.egem.nl/StUF/StUF0301\" xmlns:xsi=\"http://www.w3.org/2001/XMLSchema-instance\" StUF:entiteittype=\"OPR\" StUF:verwerkingssoort=\"T\">\n    <identificatie>0855300000215006</identificatie>\n    <authentiek StUF:metagegeven=\"true\">J</authentiek>\n    <wpl.identificatie>1043</wpl.identificatie>\n    <inOnderzoek StUF:metagegeven=\"true\" StUF:noValue=\"geenWaarde\" xsi:nil=\"true\"/>\n    <bronDocument groepsnaam=\"BRA-gegevens\" StUF:metagegeven=\"true\">\n      <identificatie>175</identificatie>\n      <datum>20210804</datum>\n    </bronDocument>\n    <StUF:tijdvakGeldigheid>\n      <StUF:beginGeldigheid>2021080400000100</StUF:beginGeldigheid>\n      <StUF:eindGeldigheid xsi:nil=\"true\" StUF:noValue=\"geenWaarde\"/>\n    </StUF:tijdvakGeldigheid>\n    <StUF:tijdstipRegistratie>20210804023651000</StUF:tijdstipRegistratie>\n    <StUF:extraElementen>\n      <StUF:extraElement naam=\"documentnummer\">175</StUF:extraElement>\n      <StUF:extraElement naam=\"documentdatum\">20210804</StUF:extraElement>\n      <StUF:extraElement naam=\"kenmerkLV\">1000005197637</StUF:extraElement>\n      <StUF:extraElement naam=\"kenmerkDigilevering\">01d5817d-e897-4ae0-bd9a-cbe83dc81a3d@digilevering.nl</StUF:extraElement>\n      <StUF:extraElement naam=\"begindatumTijdvakGeldigheidBAG\">2021080400000100</StUF:extraElement>\n      <StUF:extraElement naam=\"einddatumTijdvakGeldigheidBAG\"/>\n    </StUF:extraElementen>\n  </object>\n</oprLk01>",
					"options": {
						"raw": {
							"language": "xml"
						}
					}
				},
				"url": {
					"raw": "https://ot02.dev.osb.app/opentunnel/pilot/xml/beta/gemeentejuinen/documentsystemb/success",
					"protocol": "https",
					"host": [
						"ot02",
						"dev",
						"osb",
						"app"
					],
					"path": [
						"opentunnel",
						"pilot",
						"xml",
						"beta",
						"gemeentejuinen",
						"documentsystemb",
						"success"
					]
				}
			},
			"response": [
				{
					"name": "mock",
					"originalRequest": {
						"method": "GET",
						"header": [],
						"url": {
							"raw": "/pilot/xml/beta/success",
							"path": [
								"pilot",
								"xml",
								"beta",
								"success"
							]
						}
					},
					"status": "OK",
					"code": 200,
					"_postman_previewlanguage": "xml",
					"header": [
						{
							"key": "Content-Type",
							"value": "application/xml",
							"name": "Content-Type",
							"description": "",
							"type": "text"
						}
					],
					"cookie": [],
					"body": "<result>Success</result>\n"
				}
			]
		},
		{
			"name": "Pilot MI Beta Document System B (Gemeente Juinen) - Error",
			"request": {
				"method": "POST",
				"header": [],
				"body": {
					"mode": "raw",
					"raw": "<oprLk01 xmlns=\"http://www.egem.nl/StUF/sector/bg/0310\">\n  <stuurgegevens xmlns:BG=\"http://www.egem.nl/StUF/sector/bg/0310\" xmlns:StUF=\"http://www.egem.nl/StUF/StUF0301\" xmlns:xsi=\"http://www.w3.org/2001/XMLSchema-instance\">\n    <StUF:berichtcode>Lk01</StUF:berichtcode>\n    <StUF:zender>\n      <StUF:organisatie/>\n      <StUF:applicatie>LVBAG</StUF:applicatie>\n      <StUF:administratie/>\n      <StUF:gebruiker/>\n    </StUF:zender>\n    <StUF:ontvanger>\n      <StUF:organisatie/>\n      <StUF:applicatie>DDS</StUF:applicatie>\n      <StUF:administratie/>\n      <StUF:gebruiker/>\n    </StUF:ontvanger>\n    <StUF:referentienummer>26fdc089-7528-403a-a1e5-a77085644846</StUF:referentienummer>\n    <StUF:tijdstipBericht>20210804143832454</StUF:tijdstipBericht>\n    <StUF:entiteittype>OPR</StUF:entiteittype>\n  </stuurgegevens>\n  <parameters xmlns:BG=\"http://www.egem.nl/StUF/sector/bg/0310\" xmlns:StUF=\"http://www.egem.nl/StUF/StUF0301\" xmlns:xsi=\"http://www.w3.org/2001/XMLSchema-instance\">\n    <StUF:mutatiesoort>W</StUF:mutatiesoort>\n    <StUF:indicatorOvername>V</StUF:indicatorOvername>\n  </parameters>\n  <object xmlns:BG=\"http://www.egem.nl/StUF/sector/bg/0310\" xmlns:StUF=\"http://www.egem.nl/StUF/StUF0301\" xmlns:xsi=\"http://www.w3.org/2001/XMLSchema-instance\" StUF:entiteittype=\"OPR\" StUF:verwerkingssoort=\"T\">\n    <identificatie>0855300000215006</identificatie>\n    <authentiek StUF:metagegeven=\"true\">J</authentiek>\n    <wpl.identificatie>1043</wpl.identificatie>\n    <inOnderzoek StUF:metagegeven=\"true\" StUF:noValue=\"geenWaarde\" xsi:nil=\"true\"/>\n    <bronDocument groepsnaam=\"BRA-gegevens\" StUF:metagegeven=\"true\">\n      <identificatie>175</identificatie>\n      <datum>20210804</datum>\n    </bronDocument>\n    <StUF:tijdvakGeldigheid>\n      <StUF:beginGeldigheid>2021080400000100</StUF:beginGeldigheid>\n      <StUF:eindGeldigheid xsi:nil=\"true\" StUF:noValue=\"geenWaarde\"/>\n    </StUF:tijdvakGeldigheid>\n    <StUF:tijdstipRegistratie>20210804023651000</StUF:tijdstipRegistratie>\n    <StUF:extraElementen>\n      <StUF:extraElement naam=\"documentnummer\">175</StUF:extraElement>\n      <StUF:extraElement naam=\"documentdatum\">20210804</StUF:extraElement>\n      <StUF:extraElement naam=\"kenmerkLV\">1000005197637</StUF:extraElement>\n      <StUF:extraElement naam=\"kenmerkDigilevering\">01d5817d-e897-4ae0-bd9a-cbe83dc81a3d@digilevering.nl</StUF:extraElement>\n      <StUF:extraElement naam=\"begindatumTijdvakGeldigheidBAG\">2021080400000100</StUF:extraElement>\n      <StUF:extraElement naam=\"einddatumTijdvakGeldigheidBAG\"/>\n    </StUF:extraElementen>\n  </object>\n</oprLk01>",
					"options": {
						"raw": {
							"language": "xml"
						}
					}
				},
				"url": {
					"raw": "https://ot02.dev.osb.app/opentunnel/pilot/xml/beta/gemeentejuinen/documentsystemb/error",
					"protocol": "https",
					"host": [
						"ot02",
						"dev",
						"osb",
						"app"
					],
					"path": [
						"opentunnel",
						"pilot",
						"xml",
						"beta",
						"gemeentejuinen",
						"documentsystemb",
						"error"
					]
				}
			},
			"response": [
				{
					"name": "mock",
					"originalRequest": {
						"method": "GET",
						"header": [],
						"url": {
							"raw": "/pilot/xml/beta/error",
							"path": [
								"pilot",
								"xml",
								"beta",
								"error"
							]
						}
					},
					"status": "Internal Server Error",
					"code": 500,
					"_postman_previewlanguage": "xml",
					"header": [
						{
							"key": "Content-Type",
							"value": "application/xml",
							"name": "Content-Type",
							"description": "",
							"type": "text"
						}
					],
					"cookie": [],
					"body": "<result>Error</result>"
				}
			]
		}
	]
}